-------------------------------------------------------------------------------
Test set: com.lidar.telemetry.JustAUnitTest2
-------------------------------------------------------------------------------
Tests run: 16, Failures: 0, Errors: 0, Skipped: 0, Time elapsed: 0.002 s - in com.lidar.telemetry.JustAUnitTest2
